https://be02.bihu.com/bihube-pc/bihu/search/sug


{"res":1,"resMsg":"success","data":{"userInfo":{"hasNextPage":true,"nextPage":2,"pageNum":1,"pageSize":3,"total":69,"userList":[{"userName":"子衿<bihuHighLightTag>Q</bihuHighLightTag>","fans":14429,"brief":"19:30日更，请大家多多支持！~","userId":81361,"isFollow":false,"userIcon":"img/8837dfe2fa4fd5146bf9f0d9c2321326.jpeg","userVerifyInfo":{"verified":false,"verifyType":null,"verifyTitle":""},"articleCount":355},{"userName":"<bihuHighLightTag>q</bihuHighLightTag>小飞","fans":4241,"brief":"茫茫人海，有缘相识，点个关注交盆友吧！","userId":159831,"isFollow":false,"userIcon":"img/0ac37f83167120549ee6990ac218cc12.jpg","userVerifyInfo":{"verified":false,"verifyType":null,"verifyTitle":""},"articleCount":126},{"userName":"<bihuHighLightTag>Q</bihuHighLightTag>群11223698","fans":283,"brief":"欢迎加入千人粉丝文章助推 Q群11223698粉丝和收益培增","userId":299165,"isFollow":false,"userIcon":"img/6a5e977d28ae775fbc40d6a964c61c65.jpg","userVerifyInfo":{"verified":false,"verifyType":null,"verifyTitle":""},"articleCount":1}]},"articleInfo":{"hasNextPage":true,"nextPage":2,"pageNum":1,"pageSize":3,"total":17339,"articleList":[{"title":"东半仙：放弃500万年薪","brief":"0辆奥迪<bihuHighLightTag>Q</bihuHighLightTag>5! \n  \n 也就是说500万是很多人一辈子难以达到的高度，更别说这只是他一年的工资，现在他为了所谓的理想，要放弃这500万一年，去拿500块钱一个月，这不是疯了是什么？赶快送去医院治疗，用300万治疗费换回500万的年薪！ \n  \n 但是如果不去治疗会有什么后果呢？后果很严重！ \n 1999年，有一位这样的神经病出现在马云身边，他放弃了500万年薪，来拿马云的500块月薪，然后马云在他的帮助下，短短20年便拥有了2600亿财富，也就是说如果某个人每天中一个500万彩票，要连续中140年才能跟马云现在的财富持平。 \n  \n 马云身边的这位神经病叫蔡崇信。1999年，互联网刚刚在中国兴起，很多上市公司为了蹭互联网的热点，做个官方网页都可以吹半天牛B来拉动股价，所以电子商务这种超前的理念在很多人眼里更是天方夜谭。但是马云接触了互联网后便上了瘾，一天到晚满脑子都是互联网与电子商务，马云没有钱，于是带着自己的商业计划，去找一家又一家的风投公司，一共有37家风投公司把他当成骗子或者疯子，直到他遇到蔡崇信。 \n  \n 蔡崇信当时担任Investor Asia Limited的副总裁，主要负责亚洲区的私募业务，马云在他面前巴拉巴拉吹了一遍互联网的伟大意义，吹了一遍电子商务的前景，然后这个蔡崇信就中招了！产生一种不跟着马云玩电子商务，就会被时代淘汰的感觉，于是主动找到了马云谈起风投的相关事宜。再次谈话后，蔡崇信被马云完全忽悠了，当即决定放弃他70万美元的年薪（当时汇率约1:8.3，约580万人民币），来拿马云给他的500块的月薪。然后这位神经病陪着马云建了一个巨大的电子商务帝国。 \n  \n 现在的区块链与当时的互联网面临的状况非常相似，大家都在吹捧它，但却一直找不到落地的切入点。不同的是，现在的区块链狂热份子比当初的互联网发烧友数量要大很多。不管是炒币还是寻找应用，正如文章开头所说的那样，很多人因为这份热爱，倾家荡财都在所不惜，成为了区块链实验的炮灰。前有詹姆斯的垃圾硬盘，后有48万哥的悲壮梭哈，币圈每天都在演绎着各种不同的悲剧。 \n  \n 令人的振奋的消息也有，比如据说也有人被咕噜忽悠，放弃500万年薪加入币乎！如果是真的，那么500万年薪的人，其智商和认知要超过绝大部分普通人，他们都可以这么疯狂，作为小韭菜，跟投就行了。 \n  \n 追不上高铁的速度，买张票还不行吗？\n  \n  \n","createTime":1552699798351,"articleId":1881459501,"articleIcon":"image/20190316/c6e275157431179f16c8967b5a109495_HAYDAKRWGAYA.jpg","upCount":2066,"commentCount":721,"income":4675.14,"votes":0,"user":{"userId":27637,"userName":"东半仙","userIcon":"img/161e351a3ee7314ff2cebbe21c1f93fb.jpeg","userVerifyInfo":{"verified":false,"verifyType":null,"verifyTitle":""}}},{"title":"币圈需要一点阿Q精神","brief":"要一点阿<bihuHighLightTag>Q</bihuHighLightTag>精神，我们要笑对人生，要相信自己，虽然熊长牛短，但是这个阶段总会过去的，我相信，也坚信这一点! ","createTime":1549506301000,"articleId":1705753216,"articleIcon":"image/20190207/cb868bbd7fce6a36ab2eb2d3ec47caeb_HAYDAKRUGQYQ.jpg","upCount":854,"commentCount":265,"income":2704.11,"votes":0,"user":{"userId":354480,"userName":"兔子醬","userIcon":"avatar/20181211/8cc3a154bab044dd83c85f886d2db817.jpeg","userVerifyInfo":{"verified":false,"verifyType":null,"verifyTitle":""}}},{"title":"丢失的资产还能找回吗？| 非常重要","brief":"9 和 <bihuHighLightTag>q</bihuHighLightTag> 混淆、1 和 i 、o 和 0 等等，这种试错的工程量大，你还可以借助一些碰撞程序。 其次如果是是漏抄，算清楚漏了几位数，回忆一下可能漏抄的位置。尝试使用碰撞程序找回。我会在文章最后放两篇抄错私钥最后找回的文章和碰撞程序的使用教程，如果你有类似的问题可以参考借鉴作者的找回方法。 最后，善意提醒，不要放弃！抄错和漏抄的案例我见得比较多，最终大部分都找回来了，个别没找回来的，是因为自己放弃了。因为不管抄错还是漏抄，最终需要试错的次数的数量级并不大，找一个程序员朋友是可以解决的。 3、资产被盗，是否可以找回？ 实际上如果是被有心人盗走数字货币，找回的概率非常小。大致找回的思路是，寻求警方或是交易平台等的帮忙，通过交易转账地址、时间等信息，查找盗币者的IP确认大致地址，最终锁定嫌疑人。而追回的币，大多数都是盗币者主动归还。如果是专业黑客盗币，根本不会让你追寻到，就更别说找回币了。 同样给出一些思路： 1、寻找币圈 KOL 的帮忙，总之就是尽可能的寻找一些在币圈有资源的人。这些人容易将丢币的朋友拉成团分享寻币经验，也容易聚集一些技术大佬，帮助大家找币。当然了如果丢币者提出愿意在找到后给予回报，愿意帮助的人自然会竭尽全力，增加你找回币的概率。 2、寻找钱包或是交易所的帮助。 虽然钱包或是交易所并不需要为你被盗币负责。但他们通常会力所能及地帮助丢币者，追查交易信息和盗币者的信息并给出一些建议。通常这些帮助对于如何找到盗币者都非常管用。 3、寻找社区的帮忙 特别是 EOS， 体制比较特殊。如果在之前，我可能会建议你寻找 ECAF（ EOS 核心仲裁法庭）进行申诉，请求冻结账户并修改公私钥。 但之后可能行不通了，今年 5 月份，ECAF（ EOS 核心仲裁法庭）很有可能要被废除。不过也没关系，可以寻找 EOS 社区的帮助，社区也能够帮助撮合一些技术大佬和丢币的伙伴，给出一些好的建议。总比自己一个人摸索要强很多。 4、寻找警方帮助 经过上面 3 步，你已经大概率对此次盗币有了一个基本了解，这时候要考虑是否是身边人偷走的。我身边遇到资产被盗的，最后处理完发现都不是被黑客盗走，都是身边人偷走的，有被宿舍同学偷走的，也有被公司同事偷走的，也有被自己助理偷走的，当然，也有被自己亲戚偷走的。虽然我们不能乱怀疑别人，但是可以从这个角度去分析。 数字货币目前被判定属于资产，是刑法意义上的“财物”所以是可以按盗窃罪论处的。而就如第 一节中讲的西安警方的那个案例，说明警方确实是能够帮助受害者追回损失。虽然目前并没有出台相关数字货币被盗的法律条令，各个地区的立案标准可能会有不同。但还是建议你在资产被盗后尝试寻求警方帮助，尤其是你已经有证据证明是身边人偷走的时候，一定要用好警方的资源。 好啦，丢失的资产如何找回，就和大家介绍这么多了。最后还是希望大家能提高保护私钥的意识，希望这一节的内容无用武之地。 找回案例： ①帮币友找回了1万个EOS—申斌龙 ②抄错的EOS私钥，秒找回 ③EOS私钥抄错，如何找回 ④《几百万数字资产被盗，找回来了—坚石 ⑤《又帮朋友捡回几百万》—坚石 参考资料： 浅谈EOS密钥管理—阿华 碰撞程序教程： ECHAIN-KEY.TOP 教程 如果你想在电脑上查看这个教程，请查看网站： 私钥安全完整手册 私钥安全完整手册 「注意」 我是金马，别人离开币圈的时候，正是我深耕的时候。 我以后在 22:30 日更，已经更新超过100篇，你的熊市，让我陪你度过可好？ 币圈金马奖，和你一起走币圈这条光明大道。 希望和你成为朋友，我的微信：lijinma888 「力场 lichang.io 」公链挖矿第一社区！","createTime":1552487408000,"articleId":1828433629,"articleIcon":"image/20190313/29be46e62740eda9be10fd6f80652013_HEZDAKRUGAYA.jpeg","upCount":1475,"commentCount":588,"income":2731.29,"votes":0,"user":{"userId":20007,"userName":"金马","userIcon":"img/4bb20143e2570a93c9966a6f86f72ec4.jpeg","userVerifyInfo":{"verified":false,"verifyType":null,"verifyTitle":""}}}]},"shortContentInfo":{"hasNextPage":true,"nextPage":2,"pageNum":1,"pageSize":3,"total":1472,"shortContentList":[{"content":"rivf1<bihuHighLightTag>Q</bihuHighLightTag>7-m0naSoG-ol7w","createTime":1553473165151,"contentId":1332375142,"contentIcon":"image%2F20190325%2F75159a5430f41f50dbac4da4c3de35c5_GU4DALRQFIZDSOBOGA.jpg","upCount":653,"commentCount":3,"income":17.03,"votes":0,"user":{"userId":236987,"userName":"珞珈山神","userIcon":"img/3cded5cf80ddd9d1797834c35eca3876.jpg","userVerifyInfo":{"verified":false,"verifyType":null,"verifyTitle":""}}},{"content":"旗号的“<bihuHighLightTag>Q</bihuHighLightTag>点支付”涉嫌传销，有人爆料台湾主持人徐乃麟为“<bihuHighLightTag>Q</bihuHighLightTag>点支付”的厂商之一,“<bihuHighLightTag>Q</bihuHighLightTag>点支付”LINE群组及网页都称徐乃麟今年初加入“<bihuHighLightTag>Q</bihuHighLightTag>点支付”商家，还提供了徐乃麟手拿商品宣传的照片","createTime":1552901126055,"contentId":1725131652,"contentIcon":"","upCount":406,"commentCount":2,"income":40.46,"votes":0,"user":{"userId":924279,"userName":"币温","userIcon":"avatar/20190216/0b8f160ba209a762340758b3434b5505.jpeg","userVerifyInfo":{"verified":false,"verifyType":null,"verifyTitle":""}}},{"content":"抱团互助<bihuHighLightTag>Q</bihuHighLightTag>群成立，要互动的加<bihuHighLightTag>Q</bihuHighLightTag>群    863627543，或扫码。\n\n增加点赞率，增加你我的收入，从小币东取暖群开始。大伙多多扩散，群里只聊KEY。","createTime":1553039271588,"contentId":1703321944,"contentIcon":"image%2F20190319%2Fd10fe9d502810c8c3858bb2338f4da40_GU2DALRQFI3TIMBOGA.jpg","upCount":287,"commentCount":3,"income":26.76,"votes":0,"user":{"userId":50877,"userName":"孑孑","userIcon":"avatar/20190319/82ac805f95abd98a6ab38488be40fca0.jpeg","userVerifyInfo":{"verified":false,"verifyType":null,"verifyTitle":""}}}]},"boardInfo":{"hasNextPage":false,"nextPage":0,"pageNum":0,"pageSize":0,"total":0,"boardList":[]}}}